data num:200
data num:100
at epoch 0 train info: auc:0.6765, logloss:0.6331 eval info: auc:0.492, logloss:0.6406
at epoch 0 , train time: 11.6 eval time: 2.4
at epoch 0 , load data time: 0.0 train and load time: 10.7


data num:200
data num:100
at epoch 1 train info: auc:0.7004, logloss:0.6113 eval info: auc:0.4814, logloss:0.6223
at epoch 1 , train time: 11.4 eval time: 1.7
at epoch 1 , load data time: 0.0 train and load time: 10.4


data num:200
data num:100
at epoch 2 train info: auc:0.7083, logloss:0.5942 eval info: auc:0.4823, logloss:0.6058
at epoch 2 , train time: 11.6 eval time: 1.9
at epoch 2 , load data time: 0.0 train and load time: 10.6


